# This PCD file was generated using the MATLAB® pcwrite function
# from Computer Vision System Toolbox®.
# .PCD v.7 - Point Cloud Data file format
VERSION .7
FIELDS x y z
SIZE 4 4 4
TYPE F F F
COUNT 1 1 1
WIDTH 1025
HEIGHT 1
VIEWPOINT 0 0 0 1 0 0 0
POINTS 1025
DATA ascii
0.443961 0.344578 0.253406
0.451417 0.345620 0.251037
0.456770 0.348360 0.253830
0.444711 0.352766 0.254072
0.451570 0.353418 0.248901
0.457930 0.353741 0.251784
0.445591 0.359999 0.255172
0.451674 0.362612 0.252062
0.457169 0.359944 0.252985
0.450283 0.369946 0.255020
0.453363 0.380785 0.254863
0.456710 0.383231 0.255472
0.454531 0.387302 0.255073
0.456334 0.386069 0.254984
0.427806 0.329356 0.264170
0.430407 0.329887 0.263697
0.428028 0.334437 0.264226
0.432748 0.336278 0.262765
0.434085 0.343930 0.261775
0.441979 0.343604 0.259587
0.451256 0.344515 0.259548
0.456682 0.347955 0.258133
0.435436 0.350932 0.261099
0.440410 0.353826 0.258019
0.454901 0.349712 0.262808
0.457798 0.354101 0.260131
0.436873 0.363954 0.263211
0.441631 0.362753 0.259218
0.455059 0.365548 0.259389
0.456830 0.361195 0.259944
0.437589 0.368893 0.264170
0.442963 0.370679 0.259995
0.452128 0.371556 0.259145
0.456242 0.374740 0.263357
0.446303 0.380093 0.259289
0.450556 0.379673 0.257263
0.458025 0.380352 0.260335
0.446658 0.390252 0.261622
0.451464 0.390273 0.258102
0.458528 0.389258 0.260718
0.446251 0.397730 0.263633
0.451491 0.397082 0.261940
0.456636 0.394387 0.263844
0.446755 0.402697 0.264665
0.448689 0.402670 0.264545
0.418343 0.328521 0.271912
0.424530 0.327610 0.268966
0.431740 0.329089 0.269433
0.419103 0.335701 0.272145
0.424181 0.335886 0.267729
0.435430 0.335519 0.269000
0.419960 0.342497 0.273100
0.424745 0.344355 0.269221
0.435227 0.342930 0.268134
0.441036 0.346374 0.268695
0.449003 0.347908 0.265839
0.423882 0.350551 0.272483
0.443927 0.349713 0.271884
0.452240 0.351963 0.269585
0.458001 0.356096 0.270711
0.427822 0.365628 0.272616
0.432768 0.366141 0.269160
0.455837 0.366205 0.265527
0.459339 0.362525 0.269653
0.428096 0.368629 0.272297
0.434402 0.371163 0.269092
0.440827 0.374541 0.267288
0.455110 0.371430 0.268577
0.457445 0.370158 0.270570
0.437214 0.379750 0.272591
0.442273 0.380984 0.268783
0.458208 0.380249 0.268539
0.442733 0.388900 0.270744
0.459413 0.389621 0.269843
0.443423 0.397814 0.268958
0.453805 0.399829 0.268861
0.458659 0.396442 0.271054
0.443186 0.407166 0.269213
0.449696 0.405991 0.270420
0.457895 0.402689 0.273607
0.442760 0.413889 0.272071
0.455129 0.322312 0.282380
0.460868 0.320327 0.281241
0.469372 0.319650 0.280767
0.477523 0.319645 0.280938
0.483330 0.321808 0.282310
0.417455 0.329640 0.276306
0.424380 0.329125 0.277474
0.431050 0.329561 0.274874
0.446972 0.330587 0.282328
0.452104 0.327824 0.280357
0.460200 0.327267 0.278389
0.469374 0.326911 0.277190
0.478302 0.326551 0.278539
0.485042 0.327670 0.281140
0.411016 0.338280 0.281366
0.415324 0.335000 0.278338
0.425477 0.332842 0.281051
0.433937 0.336685 0.278697
0.446376 0.336779 0.281806
0.451474 0.336100 0.279129
0.459946 0.336138 0.276621
0.469288 0.335626 0.275435
0.478281 0.335671 0.276998
0.485731 0.335776 0.280385
0.410570 0.342524 0.281783
0.415624 0.344611 0.277573
0.437269 0.342222 0.277014
0.441215 0.346102 0.279419
0.451736 0.344797 0.278832
0.460253 0.344513 0.276877
0.469008 0.344358 0.275905
0.478064 0.344527 0.277742
0.484675 0.343559 0.281014
0.417283 0.352529 0.278167
0.423135 0.355017 0.274417
0.443831 0.349671 0.276273
0.451752 0.350019 0.275462
0.460950 0.352673 0.276009
0.469185 0.353564 0.278043
0.477450 0.352982 0.280415
0.483487 0.350174 0.281974
0.419547 0.359663 0.277723
0.423980 0.362113 0.275106
0.464088 0.362262 0.274252
0.469090 0.362368 0.278305
0.474624 0.360085 0.281493
0.426357 0.371873 0.278999
0.431682 0.374273 0.275752
0.455169 0.374322 0.275386
0.460469 0.371614 0.277740
0.467217 0.368911 0.279974
0.427819 0.379871 0.281068
0.432824 0.381056 0.276803
0.455379 0.377469 0.275688
0.460324 0.380342 0.278293
0.468071 0.383056 0.281234
0.428600 0.386756 0.282080
0.433930 0.389200 0.278101
0.439371 0.391576 0.274174
0.463224 0.388316 0.274912
0.469069 0.389404 0.278129
0.475246 0.389286 0.281582
0.434892 0.397474 0.279608
0.440088 0.398040 0.275474
0.463049 0.399103 0.274560
0.469689 0.397782 0.278093
0.473981 0.397460 0.282023
0.436198 0.406604 0.280569
0.439264 0.404442 0.278080
0.452257 0.408130 0.274941
0.461456 0.407514 0.276232
0.468222 0.406222 0.280156
0.434219 0.415635 0.279398
0.443386 0.417233 0.275748
0.450833 0.415410 0.278820
0.459988 0.414379 0.280180
0.466260 0.411725 0.282090
0.435844 0.422436 0.280385
0.442248 0.422803 0.279514
0.454326 0.312465 0.289860
0.461042 0.310999 0.288851
0.469174 0.310649 0.287837
0.478240 0.310356 0.288778
0.484167 0.312266 0.290110
0.445094 0.320683 0.289602
0.451412 0.318493 0.286809
0.459987 0.316028 0.284633
0.469164 0.315454 0.283591
0.478987 0.316077 0.284526
0.486600 0.318531 0.287719
0.491793 0.321495 0.291251
0.442756 0.327300 0.287677
0.448761 0.324711 0.283548
0.489075 0.326138 0.285235
0.493052 0.328119 0.289142
0.410221 0.339478 0.282940
0.416685 0.337601 0.284754
0.424449 0.337120 0.287045
0.433794 0.336720 0.287184
0.441725 0.335990 0.285642
0.490132 0.335721 0.284155
0.493082 0.335795 0.288564
0.401682 0.345550 0.290753
0.407231 0.344029 0.287147
0.414828 0.342302 0.288289
0.420813 0.340979 0.290510
0.441761 0.342638 0.283206
0.488715 0.345344 0.285497
0.492717 0.343494 0.289188
0.402435 0.349952 0.291244
0.407576 0.351167 0.288484
0.413523 0.355155 0.287945
0.480831 0.355938 0.284348
0.486411 0.353266 0.287451
0.416110 0.362707 0.288006
0.421348 0.365892 0.283656
0.473076 0.365634 0.283500
0.478418 0.362580 0.286996
0.483540 0.358931 0.290251
0.417406 0.371261 0.288809
0.422275 0.372297 0.284394
0.463571 0.374449 0.283598
0.470193 0.371818 0.286141
0.476476 0.371334 0.289728
0.418450 0.379634 0.289962
0.423449 0.381014 0.285522
0.463569 0.377147 0.283139
0.469704 0.378991 0.284540
0.478048 0.380251 0.286409
0.485648 0.381095 0.289006
0.419044 0.388926 0.290959
0.424264 0.389341 0.286793
0.429816 0.392794 0.282609
0.479351 0.389406 0.284401
0.485856 0.388710 0.288592
0.417542 0.397205 0.289515
0.424399 0.397764 0.285659
0.430488 0.398772 0.283531
0.478567 0.398475 0.285525
0.484003 0.397153 0.289745
0.420305 0.402730 0.287523
0.425476 0.406368 0.284762
0.431670 0.407038 0.283195
0.472392 0.408575 0.284952
0.477414 0.406080 0.288215
0.425642 0.416071 0.286909
0.429697 0.416573 0.283479
0.452150 0.419384 0.283859
0.461533 0.417937 0.286204
0.468923 0.414659 0.287589
0.474528 0.412331 0.290714
0.426372 0.422636 0.289647
0.433739 0.425080 0.287032
0.442968 0.425595 0.286860
0.451191 0.423074 0.287988
0.458139 0.422435 0.289442
0.462633 0.304031 0.298522
0.469367 0.304025 0.297848
0.476599 0.304119 0.299161
0.445603 0.312381 0.298247
0.451846 0.309871 0.296116
0.459864 0.307185 0.295048
0.469136 0.306164 0.293490
0.478591 0.306200 0.294914
0.486613 0.309909 0.296277
0.498274 0.312704 0.299711
0.505329 0.309841 0.297487
0.513246 0.309816 0.297150
0.518872 0.312265 0.299641
0.442821 0.318374 0.295967
0.448383 0.314962 0.292782
0.490038 0.315911 0.293450
0.495288 0.318773 0.297448
0.504823 0.318009 0.295695
0.513783 0.317827 0.295319
0.519720 0.318050 0.299209
0.436661 0.328253 0.296022
0.439080 0.324332 0.294165
0.496448 0.326658 0.295829
0.504939 0.326335 0.297003
0.513836 0.326611 0.296110
0.519857 0.326451 0.299216
0.426851 0.338482 0.295924
0.433184 0.334658 0.295119
0.496442 0.335857 0.295560
0.507422 0.332300 0.299024
0.513588 0.333028 0.298393
0.518560 0.332163 0.299914
0.398649 0.344960 0.295934
0.407031 0.343332 0.295639
0.415895 0.346047 0.295510
0.422646 0.343578 0.296537
0.490943 0.348985 0.291713
0.494672 0.344714 0.295971
0.398375 0.353434 0.295825
0.406681 0.355599 0.293804
0.417491 0.351069 0.299099
0.421134 0.351097 0.299786
0.489428 0.355063 0.294837
0.492852 0.352031 0.297099
0.399099 0.362267 0.298105
0.406864 0.362671 0.296522
0.411898 0.363765 0.292237
0.481910 0.366108 0.292297
0.486333 0.362419 0.296068
0.399901 0.369240 0.299682
0.408094 0.371346 0.297882
0.413052 0.372020 0.293259
0.479977 0.370654 0.293343
0.485392 0.371744 0.297118
0.409913 0.379870 0.298475
0.414589 0.380634 0.294026
0.488873 0.379754 0.295430
0.491799 0.383908 0.298751
0.410858 0.388196 0.299632
0.415392 0.388789 0.295047
0.489894 0.389787 0.294532
0.492116 0.388374 0.298461
0.409105 0.398423 0.297655
0.413439 0.397704 0.293832
0.487504 0.398177 0.295823
0.409636 0.406364 0.298809
0.412244 0.407236 0.298374
0.480260 0.408777 0.294747
0.484681 0.405900 0.297179
0.410621 0.413339 0.299543
0.415166 0.416917 0.297103
0.421337 0.418371 0.292185
0.464163 0.419774 0.291483
0.470574 0.418172 0.294684
0.476925 0.414560 0.296608
0.417170 0.424224 0.297287
0.424315 0.426218 0.293642
0.433687 0.428423 0.292787
0.443529 0.428055 0.293183
0.452164 0.427367 0.295135
0.460368 0.424185 0.295886
0.467885 0.421610 0.297945
0.419320 0.430348 0.299607
0.425894 0.432798 0.297505
0.434136 0.433189 0.297519
0.442225 0.430716 0.297451
0.449796 0.430369 0.298882
0.433171 0.438375 0.300005
0.460482 0.303655 0.304857
0.469192 0.302932 0.304760
0.478223 0.303418 0.304751
0.488752 0.302667 0.308053
0.496116 0.301865 0.307003
0.504935 0.302842 0.306268
0.511060 0.304121 0.306772
0.444692 0.311699 0.304965
0.451413 0.307330 0.304773
0.456755 0.304952 0.300693
0.481911 0.304911 0.300461
0.487256 0.307266 0.304110
0.495718 0.309140 0.303753
0.503898 0.305954 0.301925
0.514800 0.306103 0.304068
0.521160 0.310486 0.305404
0.436909 0.320221 0.305990
0.440199 0.316190 0.304479
0.495756 0.315181 0.301280
0.524678 0.317524 0.303547
0.527561 0.319521 0.307768
0.434395 0.326554 0.304977
0.499620 0.329615 0.301248
0.501966 0.330253 0.300983
0.523568 0.327126 0.304494
0.527468 0.323375 0.308119
0.428029 0.338862 0.303924
0.431533 0.334980 0.304977
0.498751 0.336374 0.304364
0.504864 0.334538 0.304952
0.514185 0.335430 0.304724
0.519678 0.332820 0.304638
0.399341 0.347391 0.302364
0.406418 0.347152 0.302706
0.411834 0.348697 0.301078
0.425684 0.344685 0.304497
0.496780 0.344974 0.304714
0.397728 0.353827 0.304781
0.406757 0.352550 0.306864
0.415861 0.353992 0.305077
0.423001 0.352189 0.304856
0.491351 0.357390 0.300893
0.494330 0.353878 0.304644
0.396189 0.362509 0.305483
0.490605 0.362876 0.302704
0.492012 0.361969 0.307027
0.396682 0.371921 0.304135
0.404345 0.373074 0.301271
0.489540 0.371952 0.304220
0.491797 0.368645 0.308016
0.397308 0.380305 0.304617
0.405235 0.380582 0.302702
0.489866 0.379633 0.305268
0.491924 0.383525 0.301440
0.397946 0.389023 0.306089
0.406146 0.388980 0.303948
0.490990 0.386540 0.308067
0.492306 0.389504 0.304222
0.399064 0.397342 0.306513
0.404739 0.397198 0.303220
0.490469 0.400350 0.303976
0.491913 0.396005 0.305088
0.400740 0.404237 0.307664
0.405477 0.407199 0.304293
0.482554 0.411364 0.300399
0.487197 0.407194 0.304557
0.408466 0.415924 0.304585
0.411853 0.419887 0.300406
0.478871 0.416791 0.304621
0.484020 0.412976 0.306076
0.409494 0.423423 0.306697
0.413144 0.426348 0.302754
0.455377 0.429215 0.300997
0.460977 0.426873 0.304354
0.469468 0.424149 0.304836
0.475092 0.421585 0.305937
0.416566 0.433099 0.305144
0.422845 0.435946 0.301884
0.437995 0.436110 0.301064
0.442305 0.434431 0.304472
0.451612 0.432434 0.304824
0.457304 0.430224 0.306810
0.419062 0.438546 0.307976
0.425805 0.441059 0.305391
0.433991 0.442175 0.304628
0.440015 0.440931 0.306482
0.490870 0.295639 0.318085
0.493979 0.295633 0.317503
0.461279 0.303744 0.312672
0.469547 0.302887 0.313639
0.478327 0.302794 0.313715
0.487016 0.298887 0.313392
0.496065 0.297103 0.313179
0.504850 0.298864 0.313553
0.512715 0.302985 0.314272
0.519581 0.304400 0.317242
0.444560 0.311434 0.313145
0.451033 0.307723 0.313947
0.458298 0.305371 0.316141
0.516419 0.305304 0.312037
0.523258 0.308415 0.313504
0.527370 0.312553 0.316399
0.436875 0.320296 0.312924
0.440441 0.316195 0.314459
0.526903 0.314462 0.310515
0.528420 0.318088 0.313688
0.434197 0.326763 0.313682
0.517523 0.331013 0.317333
0.523551 0.328561 0.313624
0.527845 0.324153 0.314228
0.428894 0.339611 0.311394
0.431908 0.335791 0.314051
0.499588 0.339415 0.310688
0.505720 0.338633 0.312226
0.513521 0.335164 0.313849
0.519164 0.332184 0.311371
0.427667 0.345469 0.313388
0.429709 0.342269 0.316772
0.497728 0.344362 0.313771
0.503582 0.341161 0.315870
0.401517 0.357181 0.309305
0.407495 0.355469 0.313515
0.415999 0.352520 0.313725
0.423229 0.350635 0.313407
0.495495 0.353698 0.313680
0.400629 0.362793 0.312833
0.403346 0.359070 0.314482
0.493328 0.362303 0.313547
0.398534 0.371312 0.313059
0.492947 0.371501 0.313573
0.396834 0.380370 0.313158
0.490329 0.381213 0.311995
0.492532 0.379404 0.315581
0.395547 0.389074 0.314189
0.489720 0.389553 0.314201
0.491628 0.388399 0.315211
0.396016 0.398157 0.313551
0.489516 0.397908 0.313682
0.491539 0.394961 0.309874
0.400489 0.404152 0.313476
0.404950 0.408165 0.313359
0.487505 0.407063 0.313720
0.407738 0.415604 0.314167
0.480361 0.417554 0.313484
0.484372 0.413453 0.313662
0.408155 0.424725 0.313620
0.463122 0.428704 0.309997
0.469698 0.426676 0.313502
0.476616 0.422544 0.314045
0.410495 0.431654 0.314926
0.413515 0.435472 0.312709
0.444438 0.435624 0.313346
0.451786 0.433886 0.313681
0.460291 0.431171 0.313902
0.465858 0.429781 0.316237
0.417645 0.440923 0.314213
0.424075 0.444993 0.312542
0.434464 0.446097 0.310819
0.441899 0.443059 0.313819
0.427034 0.448021 0.316300
0.433649 0.448096 0.315145
0.438949 0.447474 0.316497
0.490651 0.295447 0.322852
0.495823 0.295221 0.322648
0.500920 0.295762 0.323947
0.463421 0.304628 0.318389
0.470049 0.304100 0.319508
0.478262 0.301005 0.322861
0.486233 0.296422 0.322527
0.499653 0.295874 0.319530
0.505122 0.297594 0.322485
0.513851 0.300694 0.322655
0.520600 0.302487 0.323189
0.446754 0.312892 0.318551
0.452378 0.310674 0.321632
0.460216 0.307838 0.322901
0.468996 0.306234 0.324084
0.473996 0.305127 0.324320
0.525299 0.307498 0.322270
0.527664 0.312200 0.322648
0.437881 0.321894 0.319323
0.443155 0.318666 0.322178
0.449554 0.315213 0.324841
0.528811 0.317790 0.322483
0.436095 0.327354 0.321725
0.439192 0.325063 0.325125
0.516762 0.330398 0.323180
0.523174 0.328414 0.322706
0.527871 0.324380 0.322427
0.434154 0.335941 0.322756
0.508266 0.339420 0.322873
0.512686 0.335135 0.322257
0.418200 0.348178 0.323685
0.424759 0.346475 0.322914
0.431397 0.342961 0.322481
0.497198 0.345120 0.322631
0.503962 0.341945 0.322515
0.407836 0.354716 0.322881
0.414691 0.350422 0.321751
0.421501 0.349378 0.318791
0.495489 0.353991 0.322661
0.401492 0.364437 0.321791
0.403490 0.360799 0.323439
0.493958 0.362430 0.322611
0.400173 0.371510 0.322744
0.494512 0.371498 0.322368
0.399107 0.380103 0.323164
0.494610 0.380275 0.322420
0.398355 0.389212 0.322554
0.490994 0.391825 0.318863
0.493451 0.389035 0.322784
0.398645 0.397972 0.322097
0.489131 0.398043 0.322359
0.492368 0.395071 0.325352
0.401168 0.403959 0.322011
0.404328 0.408993 0.322714
0.487832 0.407144 0.322347
0.409239 0.415379 0.322175
0.412357 0.418549 0.325288
0.481739 0.419161 0.322181
0.484771 0.414980 0.322462
0.409360 0.424566 0.322882
0.412392 0.421628 0.326276
0.471444 0.428067 0.321896
0.477354 0.423526 0.322699
0.410203 0.432135 0.322865
0.412429 0.436541 0.323713
0.444761 0.435780 0.322360
0.451734 0.434074 0.322618
0.460581 0.432093 0.322515
0.467139 0.429922 0.323069
0.416736 0.442053 0.322935
0.422089 0.446117 0.323088
0.442971 0.443132 0.322697
0.426550 0.448099 0.322570
0.433805 0.448984 0.322615
0.439591 0.447720 0.322217
0.489862 0.295700 0.329534
0.495534 0.295213 0.329818
0.508353 0.295533 0.333510
0.512552 0.295166 0.333061
0.478828 0.301210 0.331241
0.486785 0.296802 0.331701
0.497209 0.296272 0.333579
0.504443 0.296824 0.330998
0.514935 0.296696 0.329725
0.520983 0.300722 0.331256
0.455155 0.313385 0.327831
0.461282 0.311894 0.329339
0.470058 0.309763 0.331430
0.474833 0.305938 0.333434
0.525124 0.308780 0.331815
0.527370 0.312429 0.328187
0.444995 0.321409 0.329280
0.451760 0.318453 0.331352
0.459617 0.315571 0.333468
0.467076 0.314324 0.335148
0.526464 0.318148 0.333884
0.527920 0.318556 0.329037
0.437931 0.330666 0.327443
0.442743 0.327033 0.331304
0.448994 0.323442 0.335005
0.516326 0.330978 0.328400
0.524010 0.328052 0.331730
0.527613 0.323426 0.328898
0.436628 0.337146 0.330552
0.440126 0.333758 0.333081
0.506178 0.337989 0.332624
0.513377 0.333790 0.331529
0.519571 0.331464 0.333184
0.416868 0.346702 0.331788
0.424933 0.343855 0.331477
0.432548 0.342399 0.331788
0.495944 0.344060 0.331833
0.502869 0.341318 0.329800
0.408782 0.354516 0.331689
0.412427 0.350063 0.331167
0.491251 0.356738 0.334718
0.493889 0.353515 0.331349
0.405660 0.362668 0.331669
0.491065 0.360206 0.334609
0.493111 0.362768 0.330817
0.402178 0.373719 0.328168
0.404332 0.371015 0.332251
0.494892 0.371314 0.331390
0.401509 0.381019 0.329050
0.404093 0.380174 0.333268
0.496089 0.380493 0.331245
0.400868 0.389525 0.330190
0.404045 0.388932 0.334257
0.495265 0.389262 0.331420
0.401066 0.397473 0.330399
0.403996 0.398729 0.334538
0.490231 0.400859 0.330836
0.492862 0.396933 0.331741
0.402017 0.404119 0.328082
0.406405 0.407233 0.331324
0.487648 0.407038 0.331658
0.410140 0.413010 0.330372
0.414149 0.417319 0.332282
0.481236 0.418838 0.331914
0.484342 0.414735 0.331357
0.411138 0.427108 0.327689
0.416231 0.424666 0.330693
0.423730 0.426038 0.334138
0.429561 0.428391 0.335859
0.470917 0.427780 0.332056
0.476945 0.423510 0.331299
0.411105 0.431466 0.327207
0.415755 0.433773 0.332370
0.423136 0.431122 0.335321
0.434742 0.433108 0.334892
0.442038 0.434187 0.331752
0.451270 0.433215 0.331773
0.460200 0.431751 0.331443
0.466703 0.429950 0.330713
0.418067 0.440666 0.330178
0.424224 0.443914 0.332362
0.434528 0.444416 0.333779
0.440465 0.442805 0.330352
0.427467 0.447485 0.328791
0.433508 0.447920 0.329056
0.438487 0.447579 0.327361
0.508155 0.295055 0.338155
0.511964 0.294831 0.337960
0.480622 0.302933 0.338380
0.486998 0.300695 0.340563
0.496056 0.297894 0.340356
0.504381 0.296976 0.340941
0.514583 0.299168 0.341076
0.519446 0.302108 0.338036
0.472923 0.311894 0.337118
0.477681 0.308832 0.340799
0.483662 0.305260 0.344364
0.517351 0.307113 0.343934
0.521285 0.309610 0.340149
0.455158 0.321280 0.336909
0.460841 0.319563 0.338685
0.469705 0.318065 0.339525
0.475755 0.317757 0.342977
0.522745 0.318136 0.340730
0.446207 0.328966 0.336660
0.451970 0.327386 0.339457
0.459821 0.326134 0.342839
0.469292 0.323727 0.343583
0.475732 0.323769 0.344185
0.518204 0.331224 0.344174
0.522465 0.327520 0.340523
0.437602 0.339686 0.336065
0.443486 0.336610 0.338749
0.450186 0.334815 0.342706
0.457052 0.332165 0.344298
0.487598 0.337307 0.343367
0.496228 0.336941 0.341074
0.504670 0.334686 0.340052
0.513798 0.332764 0.340337
0.519467 0.331606 0.339385
0.417957 0.347226 0.339509
0.424635 0.344739 0.340648
0.434320 0.345033 0.340114
0.441407 0.343357 0.342185
0.447878 0.340344 0.344404
0.487980 0.344731 0.341490
0.493016 0.343466 0.337032
0.410429 0.355624 0.337670
0.414404 0.352938 0.341208
0.437240 0.349220 0.344135
0.487519 0.353404 0.340908
0.492105 0.350207 0.336422
0.409708 0.362689 0.338787
0.412649 0.361926 0.342988
0.489282 0.362119 0.340691
0.491869 0.365533 0.336897
0.409143 0.371712 0.339804
0.411916 0.369022 0.343672
0.491067 0.368430 0.343135
0.493311 0.371942 0.340169
0.408333 0.380268 0.340319
0.495185 0.380485 0.340195
0.407950 0.389248 0.340571
0.494823 0.389122 0.340317
0.408307 0.397997 0.339429
0.412239 0.399963 0.343448
0.491087 0.401756 0.339637
0.492921 0.397736 0.340680
0.409758 0.405282 0.337474
0.414347 0.407608 0.341560
0.488690 0.406937 0.340547
0.417225 0.415279 0.339525
0.422771 0.417529 0.342980
0.480627 0.418780 0.340723
0.484338 0.414227 0.340164
0.419843 0.420894 0.336476
0.425507 0.422820 0.339674
0.433176 0.426652 0.341009
0.441735 0.428215 0.342887
0.451509 0.428804 0.343607
0.461235 0.428352 0.342770
0.469299 0.426282 0.340568
0.476274 0.422232 0.339939
0.425401 0.434729 0.336985
0.433206 0.433722 0.336967
0.443001 0.430405 0.338544
0.451513 0.430677 0.339226
0.459919 0.430276 0.338666
0.426397 0.440399 0.337136
0.431968 0.440662 0.337003
0.489286 0.302454 0.348841
0.496161 0.299696 0.349780
0.504902 0.300027 0.349035
0.511586 0.302382 0.346550
0.481335 0.311031 0.346246
0.485723 0.308544 0.349589
0.507827 0.308406 0.352519
0.513447 0.309655 0.348356
0.480262 0.318326 0.346975
0.486624 0.318008 0.351639
0.491719 0.318208 0.353687
0.508752 0.315237 0.353307
0.513909 0.318353 0.350020
0.518970 0.318650 0.345639
0.462873 0.329541 0.346132
0.469306 0.328291 0.346686
0.478629 0.327082 0.346655
0.487111 0.327023 0.349601
0.494695 0.330130 0.351028
0.505754 0.330466 0.350770
0.513654 0.327460 0.349401
0.519002 0.326024 0.345698
0.453271 0.337563 0.346267
0.460520 0.336022 0.347717
0.469143 0.335837 0.349511
0.478333 0.336028 0.347515
0.486462 0.333504 0.345784
0.496618 0.332546 0.347573
0.503947 0.331887 0.347290
0.512866 0.331714 0.345703
0.425102 0.347800 0.346357
0.431388 0.347837 0.346072
0.444046 0.346632 0.347327
0.451396 0.344588 0.348864
0.460345 0.344707 0.350896
0.469271 0.344741 0.350365
0.478323 0.344710 0.347773
0.483481 0.343693 0.345162
0.418127 0.354738 0.347210
0.424497 0.353391 0.350028
0.433496 0.353729 0.349326
0.442696 0.353334 0.350215
0.450954 0.350782 0.352657
0.460178 0.350075 0.353175
0.470220 0.352059 0.352363
0.478197 0.353801 0.348881
0.483668 0.356363 0.345433
0.416759 0.362601 0.348541
0.422884 0.361082 0.352546
0.434969 0.360908 0.352650
0.439855 0.360589 0.352294
0.479942 0.361240 0.351934
0.485277 0.363466 0.348188
0.415948 0.371378 0.349162
0.420737 0.371242 0.353296
0.488004 0.371308 0.349817
0.491983 0.373962 0.345789
0.411194 0.378763 0.345347
0.415884 0.380379 0.349693
0.420392 0.376468 0.353737
0.489837 0.379757 0.351462
0.492830 0.380607 0.347253
0.411243 0.387108 0.344998
0.415886 0.389245 0.348973
0.420455 0.393142 0.353108
0.490587 0.388928 0.352398
0.492785 0.389303 0.348028
0.416744 0.397841 0.348791
0.421791 0.399320 0.352751
0.489617 0.398872 0.350771
0.492279 0.396491 0.346957
0.417987 0.405596 0.347105
0.422768 0.407170 0.350950
0.481965 0.410334 0.352945
0.486581 0.407088 0.349142
0.426000 0.415135 0.348646
0.432125 0.418645 0.351400
0.470568 0.419083 0.352372
0.478650 0.416410 0.349472
0.483498 0.413129 0.347013
0.429156 0.420822 0.345509
0.434557 0.422500 0.347988
0.442599 0.424759 0.349362
0.451456 0.425725 0.349382
0.460445 0.424538 0.349304
0.469122 0.422754 0.348366
0.474956 0.421105 0.346566
0.486713 0.295549 0.362170
0.493780 0.295423 0.362090
0.481646 0.301163 0.361198
0.486923 0.299444 0.358258
0.496293 0.298147 0.358245
0.502162 0.301749 0.357663
0.482020 0.305632 0.361585
0.486948 0.310047 0.358261
0.496367 0.310997 0.359682
0.503395 0.308810 0.356944
0.490632 0.315957 0.354498
0.495689 0.318126 0.357437
0.505574 0.317847 0.357673
0.509479 0.320928 0.354442
0.491218 0.324043 0.353855
0.492901 0.326717 0.358012
0.507635 0.327898 0.358211
0.509559 0.324686 0.354732
0.496622 0.333895 0.358593
0.503091 0.333089 0.358723
0.446136 0.357514 0.354001
0.451822 0.355216 0.355195
0.460514 0.354513 0.355396
0.467972 0.355609 0.355021
0.425871 0.363652 0.354711
0.432072 0.364225 0.354879
0.443720 0.363198 0.356507
0.451508 0.362446 0.358583
0.460268 0.362482 0.359835
0.469264 0.362518 0.358614
0.477030 0.364104 0.355939
0.425036 0.371493 0.356128
0.433828 0.371476 0.356237
0.442372 0.371340 0.358539
0.450289 0.368977 0.361578
0.457785 0.367876 0.362204
0.472219 0.368888 0.361715
0.478374 0.371232 0.359014
0.483981 0.373010 0.355180
0.424534 0.380288 0.356671
0.434021 0.380573 0.358102
0.441133 0.379734 0.360347
0.480408 0.379454 0.360978
0.485583 0.380842 0.356739
0.420139 0.385142 0.353799
0.424495 0.389195 0.356024
0.433376 0.389118 0.360180
0.439975 0.386078 0.362144
0.481283 0.389904 0.361668
0.486206 0.389320 0.357520
0.425822 0.397919 0.356204
0.433277 0.398324 0.360503
0.479782 0.398999 0.360601
0.485479 0.397583 0.356490
0.426938 0.406730 0.355553
0.433703 0.407018 0.358858
0.440452 0.408947 0.361663
0.463362 0.411117 0.362323
0.470550 0.408697 0.361082
0.478067 0.407031 0.358000
0.483660 0.404832 0.355332
0.427993 0.412542 0.354298
0.434150 0.414865 0.355895
0.442530 0.415905 0.358250
0.451398 0.416167 0.359743
0.460506 0.416244 0.358740
0.468885 0.415031 0.356926
0.476357 0.413071 0.355024
0.444738 0.421260 0.354473
0.451453 0.421455 0.355157
0.458740 0.421198 0.354510
0.473367 0.294372 0.371133
0.478601 0.293748 0.368416
0.486914 0.293761 0.367641
0.494760 0.293515 0.367064
0.478092 0.300353 0.367029
0.488289 0.296150 0.363921
0.498651 0.300466 0.367613
0.500924 0.302674 0.363638
0.481065 0.305752 0.367818
0.486887 0.308258 0.367057
0.495281 0.307213 0.366418
0.498503 0.321411 0.365866
0.503903 0.320923 0.366404
0.491325 0.330661 0.366878
0.494000 0.325904 0.367181
0.508246 0.327102 0.366935
0.490983 0.334295 0.368740
0.495194 0.337501 0.365555
0.504078 0.334734 0.367299
0.496572 0.341522 0.369796
0.501076 0.341015 0.370527
0.463223 0.366940 0.362756
0.446501 0.375025 0.363379
0.451956 0.372817 0.364453
0.460744 0.371926 0.364291
0.468686 0.371974 0.363950
0.474832 0.375281 0.363295
0.445244 0.381256 0.364050
0.451413 0.380173 0.366727
0.460278 0.380329 0.367837
0.469212 0.380269 0.366679
0.476187 0.380815 0.364252
0.437360 0.391245 0.362942
0.443111 0.389492 0.363973
0.451444 0.389101 0.367739
0.460388 0.389296 0.368759
0.469227 0.389172 0.367594
0.476960 0.388995 0.364535
0.437465 0.396216 0.362875
0.442501 0.397967 0.364582
0.451444 0.398263 0.367224
0.460488 0.398171 0.367875
0.469296 0.398045 0.366166
0.475677 0.397078 0.363746
0.443863 0.406271 0.364077
0.451763 0.407161 0.365227
0.460307 0.406937 0.365186
0.468237 0.405260 0.363915
0.473990 0.402763 0.362779
0.453804 0.411810 0.362824
0.459044 0.411758 0.362688
0.488127 0.286111 0.378820
0.470433 0.291943 0.376732
0.478222 0.291700 0.375915
0.487007 0.289735 0.375595
0.494068 0.291855 0.375685
0.472178 0.297396 0.376120
0.477522 0.302235 0.376173
0.488031 0.303034 0.378482
0.494701 0.300052 0.375562
0.481308 0.305150 0.373165
0.486797 0.305807 0.374269
0.492243 0.305413 0.372587
0.503451 0.322191 0.371589
0.491401 0.330918 0.374881
0.495748 0.326774 0.376005
0.505985 0.326340 0.375519
0.490302 0.335737 0.375876
0.499128 0.338220 0.377562
0.505252 0.335019 0.376031
0.490357 0.343245 0.377837
0.495476 0.345073 0.375627
0.500789 0.342009 0.372334
0.494144 0.349504 0.379771
0.481066 0.285630 0.388022
0.486799 0.283898 0.384972
0.464609 0.290657 0.388277
0.468473 0.291067 0.385063
0.477749 0.288911 0.384410
0.489021 0.291652 0.386214
0.492534 0.292332 0.382344
0.471984 0.297079 0.384133
0.478236 0.299651 0.384949
0.486625 0.299184 0.384076
0.492158 0.297302 0.381378
0.496741 0.329361 0.384164
0.504221 0.328715 0.384198
0.490186 0.337066 0.384347
0.495428 0.335526 0.385512
0.505621 0.336346 0.385079
0.489021 0.344561 0.385115
0.495978 0.344079 0.385257
0.489759 0.351273 0.385652
0.493130 0.350863 0.384356
0.472918 0.286430 0.397063
0.478574 0.284064 0.394113
0.485189 0.282166 0.394045
0.464133 0.290368 0.394009
0.468991 0.290759 0.393770
0.478415 0.292576 0.394773
0.485193 0.290540 0.392463
0.473248 0.296287 0.390347
0.478063 0.296607 0.390908
0.483565 0.296252 0.389390
0.499895 0.331179 0.390019
0.501902 0.330974 0.389829
0.490863 0.338791 0.392543
0.495655 0.335305 0.393681
0.504797 0.336970 0.393132
0.488499 0.344726 0.393835
0.495669 0.344139 0.393908
0.503210 0.340859 0.396249
0.488081 0.352068 0.394018
0.491924 0.350313 0.390888
0.471354 0.285974 0.402827
0.479110 0.282669 0.403199
0.483448 0.282173 0.400487
0.464425 0.290163 0.399764
0.468374 0.290511 0.402809
0.477662 0.289822 0.402308
0.496407 0.338362 0.402055
0.503170 0.338515 0.401831
0.488400 0.345257 0.402581
0.495422 0.344530 0.402822
0.503499 0.341961 0.402737
0.486869 0.351173 0.402463
0.472038 0.285818 0.408973
0.477051 0.284049 0.409018
0.470907 0.288783 0.409056
0.475286 0.288114 0.408938
0.498545 0.339880 0.407667
0.488323 0.346439 0.410893
0.495588 0.343606 0.410598
0.501623 0.342318 0.408952
0.486000 0.349899 0.408196