^C:\USERS\DANIE\DOCUMENTS\RESEARCH\MANIPULATOR\CALIBRATION\HANDEYECALIBRATION3D\HANDEYECALIBRATION3D\SOURCE.CPP
/c /ZI /JMC /nologo /W3 /WX- /diagnostics:classic /sdl /Od /D _MBCS /Gm- /EHsc /RTC1 /MDd /GS /fp:precise /permissive- /Zc:wchar_t /Zc:forScope /Zc:inline /Fo"X64\DEBUG\\" /Fd"X64\DEBUG\VC141.PDB" /Gd /TP /FC C:\USERS\DANIE\DOCUMENTS\RESEARCH\MANIPULATOR\CALIBRATION\HANDEYECALIBRATION3D\HANDEYECALIBRATION3D\SOURCE.CPP
^C:\USERS\DANIE\DOCUMENTS\RESEARCH\MANIPULATOR\CALIBRATION\HANDEYECALIBRATION3D\HANDEYECALIBRATION3D\UTILITY.CPP
/c /ZI /JMC /nologo /W3 /WX- /diagnostics:classic /sdl /Od /D _MBCS /Gm- /EHsc /RTC1 /MDd /GS /fp:precise /permissive- /Zc:wchar_t /Zc:forScope /Zc:inline /Fo"X64\DEBUG\\" /Fd"X64\DEBUG\VC141.PDB" /Gd /TP /FC C:\USERS\DANIE\DOCUMENTS\RESEARCH\MANIPULATOR\CALIBRATION\HANDEYECALIBRATION3D\HANDEYECALIBRATION3D\UTILITY.CPP
